[
  {
    "id": 1,
    "title": "El dólar continúa con su senda alcista y supera los $4.100 después de dos semanas",
    "description": "El barril del petróleo Brent, de referencia para Colombia, subía 1,38%, a US$78 en la mañana, mientras que el WTI ganaba 1,26% a US$73",
    "date": "2023-11-17T15:41:31.985Z"
  },
  {
    "id": 2,
    "title": "Leonardo Villar dijo que la proyección del Emisor para el PIB al cierre de 2023 cambió",
    "description": "El gerente del Banco de la República, Leonardo Villar, participó en la Asamblea general de Anif de la radiografía de la economía colombiana, espacio en el cual aseguró que la proyección del PIB para 2023 ya no es de 1,2%, sino de 0,9%.",
    "date": "2023-11-17T10:41:31.985Z"
  },
  {
    "id": 3,
    "title": "\"Veo una serie de reformas que lo único que generan es una profunda incertidumbre\"",
    "description": "Durante un conversatorio sobre la actualidad económica en la Asamblea General Anif, el expresidente, Iván Duque Márquez, expresó su desacuerdo con los proyectos de reforma pensional, de salud, laboral, entre otras, del actual Gobierno; y afirmó \"veo una serie de reformas que lo único que hacen es generar incertidumbre\"",
    "date": "2023-11-16T15:41:31.985Z"
  }
]
